<?xml version="1.0" encoding="UTF-8"?>
<session version="1.0">
<refactoring accessors="true" comment="Delete element from project &apos;comerical-api&apos;&#x0D;&#x0A;- Original project: &apos;comerical-api&apos;&#x0D;&#x0A;- Original element: &apos;deb&apos;" description="Delete element" element1="src/main/resources/deb" elements="0" flags="589830" id="org.eclipse.jdt.ui.delete" resources="1" stamp="1569123386938" subPackages="false" version="1.0"/>
</session>